Assignment9
…
df

## # A tibble: 32,561 x 15
##      age workclass fnlwgt education education.num marital.status occupation
##    <dbl> <chr>      <dbl> <chr>             <dbl> <chr>          <chr>     
##  1    90 ?          77053 HS-grad               9 Widowed        ?         
##  2    82 Private   132870 HS-grad               9 Widowed        Exec-mana~
##  3    66 ?         186061 Some-col~            10 Widowed        ?         
##  4    54 Private   140359 7th-8th               4 Divorced       Machine-o~
##  5    41 Private   264663 Some-col~            10 Separated      Prof-spec~
##  6    34 Private   216864 HS-grad               9 Divorced       Other-ser~
##  7    38 Private   150601 10th                  6 Separated      Adm-cleri~
##  8    74 State-gov  88638 Doctorate            16 Never-married  Prof-spec~
##  9    68 Federal-~ 422013 HS-grad               9 Divorced       Prof-spec~
## 10    41 Private    70037 Some-col~            10 Never-married  Craft-rep~
## # ... with 32,551 more rows, and 8 more variables: relationship <chr>,
## #   race <chr>, sex <chr>, capital.gain <dbl>, capital.loss <dbl>,
## #   hours.per.week <dbl>, native.country <chr>, income <chr>
…
